^C:\AGODEMAR\MATLAB\JSBSIMMATLAB\JSBSIM\SRC\INITIALIZATION\FGLINEARIZATION.CPP
/c /IC:\agodemar\matlab\jsbsimmatlab\JSBSim\src /IC:\agodemar\matlab\jsbsimmatlab\JSBSim\src\simgear\xml /I"C:\Program Files\Microsoft Platform SDK for Windows Server 2003 R2\Include" /Zi /nologo /W1 /WX- /Ox /Ot /GL /D WIN32 /D NDEBUG /D _CONSOLE /D HAVE_EXPAT_CONFIG_H /D _USE_MATH_DEFINES /Gm- /EHsc /MD /GS /arch:SSE2 /fp:fast /Zc:wchar_t /Zc:forScope /Fo"X64\JSBSIM64\\" /Fd"X64\JSBSIM64\VC110.PDB" /Gd /TP C:\AGODEMAR\MATLAB\JSBSIMMATLAB\JSBSIM\SRC\INITIALIZATION\FGLINEARIZATION.CPP
^C:\AGODEMAR\MATLAB\JSBSIMMATLAB\JSBSIM\SRC\INITIALIZATION\FGSIMPLEXTRIM.CPP
/c /IC:\agodemar\matlab\jsbsimmatlab\JSBSim\src /IC:\agodemar\matlab\jsbsimmatlab\JSBSim\src\simgear\xml /I"C:\Program Files\Microsoft Platform SDK for Windows Server 2003 R2\Include" /Zi /nologo /W1 /WX- /Ox /Ot /GL /D WIN32 /D NDEBUG /D _CONSOLE /D HAVE_EXPAT_CONFIG_H /D _USE_MATH_DEFINES /Gm- /EHsc /MD /GS /arch:SSE2 /fp:fast /Zc:wchar_t /Zc:forScope /Fo"X64\JSBSIM64\\" /Fd"X64\JSBSIM64\VC110.PDB" /Gd /TP C:\AGODEMAR\MATLAB\JSBSIMMATLAB\JSBSIM\SRC\INITIALIZATION\FGSIMPLEXTRIM.CPP
^C:\AGODEMAR\MATLAB\JSBSIMMATLAB\JSBSIM\SRC\INITIALIZATION\FGTRIMMER.CPP
/c /IC:\agodemar\matlab\jsbsimmatlab\JSBSim\src /IC:\agodemar\matlab\jsbsimmatlab\JSBSim\src\simgear\xml /I"C:\Program Files\Microsoft Platform SDK for Windows Server 2003 R2\Include" /Zi /nologo /W1 /WX- /Ox /Ot /GL /D WIN32 /D NDEBUG /D _CONSOLE /D HAVE_EXPAT_CONFIG_H /D _USE_MATH_DEFINES /Gm- /EHsc /MD /GS /arch:SSE2 /fp:fast /Zc:wchar_t /Zc:forScope /Fo"X64\JSBSIM64\\" /Fd"X64\JSBSIM64\VC110.PDB" /Gd /TP C:\AGODEMAR\MATLAB\JSBSIMMATLAB\JSBSIM\SRC\INITIALIZATION\FGTRIMMER.CPP
^C:\AGODEMAR\MATLAB\JSBSIMMATLAB\JSBSIM\SRC\INPUT_OUTPUT\FGOUTPUTFG.CPP
/c /IC:\agodemar\matlab\jsbsimmatlab\JSBSim\src /IC:\agodemar\matlab\jsbsimmatlab\JSBSim\src\simgear\xml /I"C:\Program Files\Microsoft Platform SDK for Windows Server 2003 R2\Include" /Zi /nologo /W1 /WX- /Ox /Ot /GL /D WIN32 /D NDEBUG /D _CONSOLE /D HAVE_EXPAT_CONFIG_H /D _USE_MATH_DEFINES /Gm- /EHsc /MD /GS /arch:SSE2 /fp:fast /Zc:wchar_t /Zc:forScope /Fo"X64\JSBSIM64\\" /Fd"X64\JSBSIM64\VC110.PDB" /Gd /TP C:\AGODEMAR\MATLAB\JSBSIMMATLAB\JSBSIM\SRC\INPUT_OUTPUT\FGOUTPUTFG.CPP
^C:\AGODEMAR\MATLAB\JSBSIMMATLAB\JSBSIM\SRC\INPUT_OUTPUT\FGOUTPUTFILE.CPP
/c /IC:\agodemar\matlab\jsbsimmatlab\JSBSim\src /IC:\agodemar\matlab\jsbsimmatlab\JSBSim\src\simgear\xml /I"C:\Program Files\Microsoft Platform SDK for Windows Server 2003 R2\Include" /Zi /nologo /W1 /WX- /Ox /Ot /GL /D WIN32 /D NDEBUG /D _CONSOLE /D HAVE_EXPAT_CONFIG_H /D _USE_MATH_DEFINES /Gm- /EHsc /MD /GS /arch:SSE2 /fp:fast /Zc:wchar_t /Zc:forScope /Fo"X64\JSBSIM64\\" /Fd"X64\JSBSIM64\VC110.PDB" /Gd /TP C:\AGODEMAR\MATLAB\JSBSIMMATLAB\JSBSIM\SRC\INPUT_OUTPUT\FGOUTPUTFILE.CPP
^C:\AGODEMAR\MATLAB\JSBSIMMATLAB\JSBSIM\SRC\INPUT_OUTPUT\FGOUTPUTSOCKET.CPP
/c /IC:\agodemar\matlab\jsbsimmatlab\JSBSim\src /IC:\agodemar\matlab\jsbsimmatlab\JSBSim\src\simgear\xml /I"C:\Program Files\Microsoft Platform SDK for Windows Server 2003 R2\Include" /Zi /nologo /W1 /WX- /Ox /Ot /GL /D WIN32 /D NDEBUG /D _CONSOLE /D HAVE_EXPAT_CONFIG_H /D _USE_MATH_DEFINES /Gm- /EHsc /MD /GS /arch:SSE2 /fp:fast /Zc:wchar_t /Zc:forScope /Fo"X64\JSBSIM64\\" /Fd"X64\JSBSIM64\VC110.PDB" /Gd /TP C:\AGODEMAR\MATLAB\JSBSIMMATLAB\JSBSIM\SRC\INPUT_OUTPUT\FGOUTPUTSOCKET.CPP
^C:\AGODEMAR\MATLAB\JSBSIMMATLAB\JSBSIM\SRC\INPUT_OUTPUT\FGOUTPUTTEXTFILE.CPP
/c /IC:\agodemar\matlab\jsbsimmatlab\JSBSim\src /IC:\agodemar\matlab\jsbsimmatlab\JSBSim\src\simgear\xml /I"C:\Program Files\Microsoft Platform SDK for Windows Server 2003 R2\Include" /Zi /nologo /W1 /WX- /Ox /Ot /GL /D WIN32 /D NDEBUG /D _CONSOLE /D HAVE_EXPAT_CONFIG_H /D _USE_MATH_DEFINES /Gm- /EHsc /MD /GS /arch:SSE2 /fp:fast /Zc:wchar_t /Zc:forScope /Fo"X64\JSBSIM64\\" /Fd"X64\JSBSIM64\VC110.PDB" /Gd /TP C:\AGODEMAR\MATLAB\JSBSIMMATLAB\JSBSIM\SRC\INPUT_OUTPUT\FGOUTPUTTEXTFILE.CPP
^C:\AGODEMAR\MATLAB\JSBSIMMATLAB\JSBSIM\SRC\INPUT_OUTPUT\FGOUTPUTTYPE.CPP
/c /IC:\agodemar\matlab\jsbsimmatlab\JSBSim\src /IC:\agodemar\matlab\jsbsimmatlab\JSBSim\src\simgear\xml /I"C:\Program Files\Microsoft Platform SDK for Windows Server 2003 R2\Include" /Zi /nologo /W1 /WX- /Ox /Ot /GL /D WIN32 /D NDEBUG /D _CONSOLE /D HAVE_EXPAT_CONFIG_H /D _USE_MATH_DEFINES /Gm- /EHsc /MD /GS /arch:SSE2 /fp:fast /Zc:wchar_t /Zc:forScope /Fo"X64\JSBSIM64\\" /Fd"X64\JSBSIM64\VC110.PDB" /Gd /TP C:\AGODEMAR\MATLAB\JSBSIMMATLAB\JSBSIM\SRC\INPUT_OUTPUT\FGOUTPUTTYPE.CPP
^C:\AGODEMAR\MATLAB\JSBSIMMATLAB\JSBSIM\SRC\INPUT_OUTPUT\FGPROPERTYREADER.CPP
/c /IC:\agodemar\matlab\jsbsimmatlab\JSBSim\src /IC:\agodemar\matlab\jsbsimmatlab\JSBSim\src\simgear\xml /I"C:\Program Files\Microsoft Platform SDK for Windows Server 2003 R2\Include" /Zi /nologo /W1 /WX- /Ox /Ot /GL /D WIN32 /D NDEBUG /D _CONSOLE /D HAVE_EXPAT_CONFIG_H /D _USE_MATH_DEFINES /Gm- /EHsc /MD /GS /arch:SSE2 /fp:fast /Zc:wchar_t /Zc:forScope /Fo"X64\JSBSIM64\\" /Fd"X64\JSBSIM64\VC110.PDB" /Gd /TP C:\AGODEMAR\MATLAB\JSBSIMMATLAB\JSBSIM\SRC\INPUT_OUTPUT\FGPROPERTYREADER.CPP
^C:\AGODEMAR\MATLAB\JSBSIMMATLAB\JSBSIM\SRC\MATH\FGNELDERMEAD.CPP
/c /IC:\agodemar\matlab\jsbsimmatlab\JSBSim\src /IC:\agodemar\matlab\jsbsimmatlab\JSBSim\src\simgear\xml /I"C:\Program Files\Microsoft Platform SDK for Windows Server 2003 R2\Include" /Zi /nologo /W1 /WX- /Ox /Ot /GL /D WIN32 /D NDEBUG /D _CONSOLE /D HAVE_EXPAT_CONFIG_H /D _USE_MATH_DEFINES /Gm- /EHsc /MD /GS /arch:SSE2 /fp:fast /Zc:wchar_t /Zc:forScope /Fo"X64\JSBSIM64\\" /Fd"X64\JSBSIM64\VC110.PDB" /Gd /TP C:\AGODEMAR\MATLAB\JSBSIMMATLAB\JSBSIM\SRC\MATH\FGNELDERMEAD.CPP
^C:\AGODEMAR\MATLAB\JSBSIMMATLAB\JSBSIM\SRC\MATH\FGSTATESPACE.CPP
/c /IC:\agodemar\matlab\jsbsimmatlab\JSBSim\src /IC:\agodemar\matlab\jsbsimmatlab\JSBSim\src\simgear\xml /I"C:\Program Files\Microsoft Platform SDK for Windows Server 2003 R2\Include" /Zi /nologo /W1 /WX- /Ox /Ot /GL /D WIN32 /D NDEBUG /D _CONSOLE /D HAVE_EXPAT_CONFIG_H /D _USE_MATH_DEFINES /Gm- /EHsc /MD /GS /arch:SSE2 /fp:fast /Zc:wchar_t /Zc:forScope /Fo"X64\JSBSIM64\\" /Fd"X64\JSBSIM64\VC110.PDB" /Gd /TP C:\AGODEMAR\MATLAB\JSBSIMMATLAB\JSBSIM\SRC\MATH\FGSTATESPACE.CPP
^C:\AGODEMAR\MATLAB\JSBSIMMATLAB\JSBSIM\SRC\MODELS\ATMOSPHERE\FGSTANDARDATMOSPHERE.CPP
/c /IC:\agodemar\matlab\jsbsimmatlab\JSBSim\src /IC:\agodemar\matlab\jsbsimmatlab\JSBSim\src\simgear\xml /I"C:\Program Files\Microsoft Platform SDK for Windows Server 2003 R2\Include" /Zi /nologo /W1 /WX- /Ox /Ot /GL /D WIN32 /D NDEBUG /D _CONSOLE /D HAVE_EXPAT_CONFIG_H /D _USE_MATH_DEFINES /Gm- /EHsc /MD /GS /arch:SSE2 /fp:fast /Zc:wchar_t /Zc:forScope /Fo"X64\JSBSIM64\\" /Fd"X64\JSBSIM64\VC110.PDB" /Gd /TP C:\AGODEMAR\MATLAB\JSBSIMMATLAB\JSBSIM\SRC\MODELS\ATMOSPHERE\FGSTANDARDATMOSPHERE.CPP
^C:\AGODEMAR\MATLAB\JSBSIMMATLAB\JSBSIM\SRC\MODELS\ATMOSPHERE\FGWINDS.CPP
/c /IC:\agodemar\matlab\jsbsimmatlab\JSBSim\src /IC:\agodemar\matlab\jsbsimmatlab\JSBSim\src\simgear\xml /I"C:\Program Files\Microsoft Platform SDK for Windows Server 2003 R2\Include" /Zi /nologo /W1 /WX- /Ox /Ot /GL /D WIN32 /D NDEBUG /D _CONSOLE /D HAVE_EXPAT_CONFIG_H /D _USE_MATH_DEFINES /Gm- /EHsc /MD /GS /arch:SSE2 /fp:fast /Zc:wchar_t /Zc:forScope /Fo"X64\JSBSIM64\\" /Fd"X64\JSBSIM64\VC110.PDB" /Gd /TP C:\AGODEMAR\MATLAB\JSBSIMMATLAB\JSBSIM\SRC\MODELS\ATMOSPHERE\FGWINDS.CPP
^C:\AGODEMAR\MATLAB\JSBSIMMATLAB\JSBSIM\SRC\MODELS\FGACCELERATIONS.CPP
/c /IC:\agodemar\matlab\jsbsimmatlab\JSBSim\src /IC:\agodemar\matlab\jsbsimmatlab\JSBSim\src\simgear\xml /I"C:\Program Files\Microsoft Platform SDK for Windows Server 2003 R2\Include" /Zi /nologo /W1 /WX- /Ox /Ot /GL /D WIN32 /D NDEBUG /D _CONSOLE /D HAVE_EXPAT_CONFIG_H /D _USE_MATH_DEFINES /Gm- /EHsc /MD /GS /arch:SSE2 /fp:fast /Zc:wchar_t /Zc:forScope /Fo"X64\JSBSIM64\\" /Fd"X64\JSBSIM64\VC110.PDB" /Gd /TP C:\AGODEMAR\MATLAB\JSBSIMMATLAB\JSBSIM\SRC\MODELS\FGACCELERATIONS.CPP
^C:\AGODEMAR\MATLAB\JSBSIMMATLAB\JSBSIM\SRC\MODELS\FGSURFACE.CPP
/c /IC:\agodemar\matlab\jsbsimmatlab\JSBSim\src /IC:\agodemar\matlab\jsbsimmatlab\JSBSim\src\simgear\xml /I"C:\Program Files\Microsoft Platform SDK for Windows Server 2003 R2\Include" /Zi /nologo /W1 /WX- /Ox /Ot /GL /D WIN32 /D NDEBUG /D _CONSOLE /D HAVE_EXPAT_CONFIG_H /D _USE_MATH_DEFINES /Gm- /EHsc /MD /GS /arch:SSE2 /fp:fast /Zc:wchar_t /Zc:forScope /Fo"X64\JSBSIM64\\" /Fd"X64\JSBSIM64\VC110.PDB" /Gd /TP C:\AGODEMAR\MATLAB\JSBSIMMATLAB\JSBSIM\SRC\MODELS\FGSURFACE.CPP
^C:\AGODEMAR\MATLAB\JSBSIMMATLAB\JSBSIM\SRC\MODELS\FLIGHT_CONTROL\FGANGLES.CPP
/c /IC:\agodemar\matlab\jsbsimmatlab\JSBSim\src /IC:\agodemar\matlab\jsbsimmatlab\JSBSim\src\simgear\xml /I"C:\Program Files\Microsoft Platform SDK for Windows Server 2003 R2\Include" /Zi /nologo /W1 /WX- /Ox /Ot /GL /D WIN32 /D NDEBUG /D _CONSOLE /D HAVE_EXPAT_CONFIG_H /D _USE_MATH_DEFINES /Gm- /EHsc /MD /GS /arch:SSE2 /fp:fast /Zc:wchar_t /Zc:forScope /Fo"X64\JSBSIM64\\" /Fd"X64\JSBSIM64\VC110.PDB" /Gd /TP C:\AGODEMAR\MATLAB\JSBSIMMATLAB\JSBSIM\SRC\MODELS\FLIGHT_CONTROL\FGANGLES.CPP
^C:\AGODEMAR\MATLAB\JSBSIMMATLAB\JSBSIM\SRC\MODELS\FLIGHT_CONTROL\FGDISTRIBUTOR.CPP
/c /IC:\agodemar\matlab\jsbsimmatlab\JSBSim\src /IC:\agodemar\matlab\jsbsimmatlab\JSBSim\src\simgear\xml /I"C:\Program Files\Microsoft Platform SDK for Windows Server 2003 R2\Include" /Zi /nologo /W1 /WX- /Ox /Ot /GL /D WIN32 /D NDEBUG /D _CONSOLE /D HAVE_EXPAT_CONFIG_H /D _USE_MATH_DEFINES /Gm- /EHsc /MD /GS /arch:SSE2 /fp:fast /Zc:wchar_t /Zc:forScope /Fo"X64\JSBSIM64\\" /Fd"X64\JSBSIM64\VC110.PDB" /Gd /TP C:\AGODEMAR\MATLAB\JSBSIMMATLAB\JSBSIM\SRC\MODELS\FLIGHT_CONTROL\FGDISTRIBUTOR.CPP
^C:\AGODEMAR\MATLAB\JSBSIMMATLAB\JSBSIM\SRC\MODELS\FLIGHT_CONTROL\FGWAYPOINT.CPP
/c /IC:\agodemar\matlab\jsbsimmatlab\JSBSim\src /IC:\agodemar\matlab\jsbsimmatlab\JSBSim\src\simgear\xml /I"C:\Program Files\Microsoft Platform SDK for Windows Server 2003 R2\Include" /Zi /nologo /W1 /WX- /Ox /Ot /GL /D WIN32 /D NDEBUG /D _CONSOLE /D HAVE_EXPAT_CONFIG_H /D _USE_MATH_DEFINES /Gm- /EHsc /MD /GS /arch:SSE2 /fp:fast /Zc:wchar_t /Zc:forScope /Fo"X64\JSBSIM64\\" /Fd"X64\JSBSIM64\VC110.PDB" /Gd /TP C:\AGODEMAR\MATLAB\JSBSIMMATLAB\JSBSIM\SRC\MODELS\FLIGHT_CONTROL\FGWAYPOINT.CPP
^C:\AGODEMAR\MATLAB\JSBSIMMATLAB\JSBSIM\SRC\MODELS\PROPULSION\FGTRANSMISSION.CPP
/c /IC:\agodemar\matlab\jsbsimmatlab\JSBSim\src /IC:\agodemar\matlab\jsbsimmatlab\JSBSim\src\simgear\xml /I"C:\Program Files\Microsoft Platform SDK for Windows Server 2003 R2\Include" /Zi /nologo /W1 /WX- /Ox /Ot /GL /D WIN32 /D NDEBUG /D _CONSOLE /D HAVE_EXPAT_CONFIG_H /D _USE_MATH_DEFINES /Gm- /EHsc /MD /GS /arch:SSE2 /fp:fast /Zc:wchar_t /Zc:forScope /Fo"X64\JSBSIM64\\" /Fd"X64\JSBSIM64\VC110.PDB" /Gd /TP C:\AGODEMAR\MATLAB\JSBSIMMATLAB\JSBSIM\SRC\MODELS\PROPULSION\FGTRANSMISSION.CPP
^C:\AGODEMAR\MATLAB\JSBSIMMATLAB\JSBSIM\SRC\SIMGEAR\MAGVAR\COREMAG.CXX
/c /IC:\agodemar\matlab\jsbsimmatlab\JSBSim\src /IC:\agodemar\matlab\jsbsimmatlab\JSBSim\src\simgear\xml /I"C:\Program Files\Microsoft Platform SDK for Windows Server 2003 R2\Include" /Zi /nologo /W1 /WX- /Ox /Ot /GL /D WIN32 /D NDEBUG /D _CONSOLE /D HAVE_EXPAT_CONFIG_H /D _USE_MATH_DEFINES /Gm- /EHsc /MD /GS /arch:SSE2 /fp:fast /Zc:wchar_t /Zc:forScope /Fo"X64\JSBSIM64\\" /Fd"X64\JSBSIM64\VC110.PDB" /Gd /TP C:\AGODEMAR\MATLAB\JSBSIMMATLAB\JSBSIM\SRC\SIMGEAR\MAGVAR\COREMAG.CXX
^C:\AGODEMAR\MATLAB\JSBSIMMATLAB\JSBSIM\SRC\SIMGEAR\XML\EASYXML.CXX
/c /IC:\agodemar\matlab\jsbsimmatlab\JSBSim\src /IC:\agodemar\matlab\jsbsimmatlab\JSBSim\src\simgear\xml /I"C:\Program Files\Microsoft Platform SDK for Windows Server 2003 R2\Include" /Zi /nologo /W1 /WX- /Ox /Ot /GL /D WIN32 /D NDEBUG /D _CONSOLE /D HAVE_EXPAT_CONFIG_H /D _USE_MATH_DEFINES /Gm- /EHsc /MD /GS /arch:SSE2 /fp:fast /Zc:wchar_t /Zc:forScope /Fo"X64\JSBSIM64\\" /Fd"X64\JSBSIM64\VC110.PDB" /Gd /TP C:\AGODEMAR\MATLAB\JSBSIMMATLAB\JSBSIM\SRC\SIMGEAR\XML\EASYXML.CXX
^C:\AGODEMAR\MATLAB\JSBSIMMATLAB\JSBSIM\SRC\MODELS\FLIGHT_CONTROL\FGACCELEROMETER.CPP
/c /IC:\agodemar\matlab\jsbsimmatlab\JSBSim\src /IC:\agodemar\matlab\jsbsimmatlab\JSBSim\src\simgear\xml /I"C:\Program Files\Microsoft Platform SDK for Windows Server 2003 R2\Include" /Zi /nologo /W1 /WX- /Ox /Ot /GL /D WIN32 /D NDEBUG /D _CONSOLE /D HAVE_EXPAT_CONFIG_H /D _USE_MATH_DEFINES /Gm- /EHsc /MD /GS /arch:SSE2 /fp:fast /Zc:wchar_t /Zc:forScope /Fo"X64\JSBSIM64\\" /Fd"X64\JSBSIM64\VC110.PDB" /Gd /TP C:\AGODEMAR\MATLAB\JSBSIMMATLAB\JSBSIM\SRC\MODELS\FLIGHT_CONTROL\FGACCELEROMETER.CPP
^C:\AGODEMAR\MATLAB\JSBSIMMATLAB\JSBSIM\SRC\MODELS\FLIGHT_CONTROL\FGACTUATOR.CPP
/c /IC:\agodemar\matlab\jsbsimmatlab\JSBSim\src /IC:\agodemar\matlab\jsbsimmatlab\JSBSim\src\simgear\xml /I"C:\Program Files\Microsoft Platform SDK for Windows Server 2003 R2\Include" /Zi /nologo /W1 /WX- /Ox /Ot /GL /D WIN32 /D NDEBUG /D _CONSOLE /D HAVE_EXPAT_CONFIG_H /D _USE_MATH_DEFINES /Gm- /EHsc /MD /GS /arch:SSE2 /fp:fast /Zc:wchar_t /Zc:forScope /Fo"X64\JSBSIM64\\" /Fd"X64\JSBSIM64\VC110.PDB" /Gd /TP C:\AGODEMAR\MATLAB\JSBSIMMATLAB\JSBSIM\SRC\MODELS\FLIGHT_CONTROL\FGACTUATOR.CPP
^C:\AGODEMAR\MATLAB\JSBSIMMATLAB\JSBSIM\SRC\MODELS\FGAERODYNAMICS.CPP
/c /IC:\agodemar\matlab\jsbsimmatlab\JSBSim\src /IC:\agodemar\matlab\jsbsimmatlab\JSBSim\src\simgear\xml /I"C:\Program Files\Microsoft Platform SDK for Windows Server 2003 R2\Include" /Zi /nologo /W1 /WX- /Ox /Ot /GL /D WIN32 /D NDEBUG /D _CONSOLE /D HAVE_EXPAT_CONFIG_H /D _USE_MATH_DEFINES /Gm- /EHsc /MD /GS /arch:SSE2 /fp:fast /Zc:wchar_t /Zc:forScope /Fo"X64\JSBSIM64\\" /Fd"X64\JSBSIM64\VC110.PDB" /Gd /TP C:\AGODEMAR\MATLAB\JSBSIMMATLAB\JSBSIM\SRC\MODELS\FGAERODYNAMICS.CPP
^C:\AGODEMAR\MATLAB\JSBSIMMATLAB\JSBSIM\SRC\MODELS\FGAIRCRAFT.CPP
/c /IC:\agodemar\matlab\jsbsimmatlab\JSBSim\src /IC:\agodemar\matlab\jsbsimmatlab\JSBSim\src\simgear\xml /I"C:\Program Files\Microsoft Platform SDK for Windows Server 2003 R2\Include" /Zi /nologo /W1 /WX- /Ox /Ot /GL /D WIN32 /D NDEBUG /D _CONSOLE /D HAVE_EXPAT_CONFIG_H /D _USE_MATH_DEFINES /Gm- /EHsc /MD /GS /arch:SSE2 /fp:fast /Zc:wchar_t /Zc:forScope /Fo"X64\JSBSIM64\\" /Fd"X64\JSBSIM64\VC110.PDB" /Gd /TP C:\AGODEMAR\MATLAB\JSBSIMMATLAB\JSBSIM\SRC\MODELS\FGAIRCRAFT.CPP
^C:\AGODEMAR\MATLAB\JSBSIMMATLAB\JSBSIM\SRC\MODELS\FGATMOSPHERE.CPP
/c /IC:\agodemar\matlab\jsbsimmatlab\JSBSim\src /IC:\agodemar\matlab\jsbsimmatlab\JSBSim\src\simgear\xml /I"C:\Program Files\Microsoft Platform SDK for Windows Server 2003 R2\Include" /Zi /nologo /W1 /WX- /Ox /Ot /GL /D WIN32 /D NDEBUG /D _CONSOLE /D HAVE_EXPAT_CONFIG_H /D _USE_MATH_DEFINES /Gm- /EHsc /MD /GS /arch:SSE2 /fp:fast /Zc:wchar_t /Zc:forScope /Fo"X64\JSBSIM64\\" /Fd"X64\JSBSIM64\VC110.PDB" /Gd /TP C:\AGODEMAR\MATLAB\JSBSIMMATLAB\JSBSIM\SRC\MODELS\FGATMOSPHERE.CPP
^C:\AGODEMAR\MATLAB\JSBSIMMATLAB\JSBSIM\SRC\MODELS\FGAUXILIARY.CPP
/c /IC:\agodemar\matlab\jsbsimmatlab\JSBSim\src /IC:\agodemar\matlab\jsbsimmatlab\JSBSim\src\simgear\xml /I"C:\Program Files\Microsoft Platform SDK for Windows Server 2003 R2\Include" /Zi /nologo /W1 /WX- /Ox /Ot /GL /D WIN32 /D NDEBUG /D _CONSOLE /D HAVE_EXPAT_CONFIG_H /D _USE_MATH_DEFINES /Gm- /EHsc /MD /GS /arch:SSE2 /fp:fast /Zc:wchar_t /Zc:forScope /Fo"X64\JSBSIM64\\" /Fd"X64\JSBSIM64\VC110.PDB" /Gd /TP C:\AGODEMAR\MATLAB\JSBSIMMATLAB\JSBSIM\SRC\MODELS\FGAUXILIARY.CPP
^C:\AGODEMAR\MATLAB\JSBSIMMATLAB\JSBSIM\SRC\MODELS\FGBUOYANTFORCES.CPP
/c /IC:\agodemar\matlab\jsbsimmatlab\JSBSim\src /IC:\agodemar\matlab\jsbsimmatlab\JSBSim\src\simgear\xml /I"C:\Program Files\Microsoft Platform SDK for Windows Server 2003 R2\Include" /Zi /nologo /W1 /WX- /Ox /Ot /GL /D WIN32 /D NDEBUG /D _CONSOLE /D HAVE_EXPAT_CONFIG_H /D _USE_MATH_DEFINES /Gm- /EHsc /MD /GS /arch:SSE2 /fp:fast /Zc:wchar_t /Zc:forScope /Fo"X64\JSBSIM64\\" /Fd"X64\JSBSIM64\VC110.PDB" /Gd /TP C:\AGODEMAR\MATLAB\JSBSIMMATLAB\JSBSIM\SRC\MODELS\FGBUOYANTFORCES.CPP
^C:\AGODEMAR\MATLAB\JSBSIMMATLAB\JSBSIM\SRC\MATH\FGCOLUMNVECTOR3.CPP
/c /IC:\agodemar\matlab\jsbsimmatlab\JSBSim\src /IC:\agodemar\matlab\jsbsimmatlab\JSBSim\src\simgear\xml /I"C:\Program Files\Microsoft Platform SDK for Windows Server 2003 R2\Include" /Zi /nologo /W1 /WX- /Ox /Ot /GL /D WIN32 /D NDEBUG /D _CONSOLE /D HAVE_EXPAT_CONFIG_H /D _USE_MATH_DEFINES /Gm- /EHsc /MD /GS /arch:SSE2 /fp:fast /Zc:wchar_t /Zc:forScope /Fo"X64\JSBSIM64\\" /Fd"X64\JSBSIM64\VC110.PDB" /Gd /TP C:\AGODEMAR\MATLAB\JSBSIMMATLAB\JSBSIM\SRC\MATH\FGCOLUMNVECTOR3.CPP
^C:\AGODEMAR\MATLAB\JSBSIMMATLAB\JSBSIM\SRC\MATH\FGCONDITION.CPP
/c /IC:\agodemar\matlab\jsbsimmatlab\JSBSim\src /IC:\agodemar\matlab\jsbsimmatlab\JSBSim\src\simgear\xml /I"C:\Program Files\Microsoft Platform SDK for Windows Server 2003 R2\Include" /Zi /nologo /W1 /WX- /Ox /Ot /GL /D WIN32 /D NDEBUG /D _CONSOLE /D HAVE_EXPAT_CONFIG_H /D _USE_MATH_DEFINES /Gm- /EHsc /MD /GS /arch:SSE2 /fp:fast /Zc:wchar_t /Zc:forScope /Fo"X64\JSBSIM64\\" /Fd"X64\JSBSIM64\VC110.PDB" /Gd /TP C:\AGODEMAR\MATLAB\JSBSIMMATLAB\JSBSIM\SRC\MATH\FGCONDITION.CPP
^C:\AGODEMAR\MATLAB\JSBSIMMATLAB\JSBSIM\SRC\MODELS\FLIGHT_CONTROL\FGDEADBAND.CPP
/c /IC:\agodemar\matlab\jsbsimmatlab\JSBSim\src /IC:\agodemar\matlab\jsbsimmatlab\JSBSim\src\simgear\xml /I"C:\Program Files\Microsoft Platform SDK for Windows Server 2003 R2\Include" /Zi /nologo /W1 /WX- /Ox /Ot /GL /D WIN32 /D NDEBUG /D _CONSOLE /D HAVE_EXPAT_CONFIG_H /D _USE_MATH_DEFINES /Gm- /EHsc /MD /GS /arch:SSE2 /fp:fast /Zc:wchar_t /Zc:forScope /Fo"X64\JSBSIM64\\" /Fd"X64\JSBSIM64\VC110.PDB" /Gd /TP C:\AGODEMAR\MATLAB\JSBSIMMATLAB\JSBSIM\SRC\MODELS\FLIGHT_CONTROL\FGDEADBAND.CPP
^C:\AGODEMAR\MATLAB\JSBSIMMATLAB\JSBSIM\SRC\MODELS\PROPULSION\FGELECTRIC.CPP
/c /IC:\agodemar\matlab\jsbsimmatlab\JSBSim\src /IC:\agodemar\matlab\jsbsimmatlab\JSBSim\src\simgear\xml /I"C:\Program Files\Microsoft Platform SDK for Windows Server 2003 R2\Include" /Zi /nologo /W1 /WX- /Ox /Ot /GL /D WIN32 /D NDEBUG /D _CONSOLE /D HAVE_EXPAT_CONFIG_H /D _USE_MATH_DEFINES /Gm- /EHsc /MD /GS /arch:SSE2 /fp:fast /Zc:wchar_t /Zc:forScope /Fo"X64\JSBSIM64\\" /Fd"X64\JSBSIM64\VC110.PDB" /Gd /TP C:\AGODEMAR\MATLAB\JSBSIMMATLAB\JSBSIM\SRC\MODELS\PROPULSION\FGELECTRIC.CPP
^C:\AGODEMAR\MATLAB\JSBSIMMATLAB\JSBSIM\SRC\MODELS\PROPULSION\FGENGINE.CPP
/c /IC:\agodemar\matlab\jsbsimmatlab\JSBSim\src /IC:\agodemar\matlab\jsbsimmatlab\JSBSim\src\simgear\xml /I"C:\Program Files\Microsoft Platform SDK for Windows Server 2003 R2\Include" /Zi /nologo /W1 /WX- /Ox /Ot /GL /D WIN32 /D NDEBUG /D _CONSOLE /D HAVE_EXPAT_CONFIG_H /D _USE_MATH_DEFINES /Gm- /EHsc /MD /GS /arch:SSE2 /fp:fast /Zc:wchar_t /Zc:forScope /Fo"X64\JSBSIM64\\" /Fd"X64\JSBSIM64\VC110.PDB" /Gd /TP C:\AGODEMAR\MATLAB\JSBSIMMATLAB\JSBSIM\SRC\MODELS\PROPULSION\FGENGINE.CPP
^C:\AGODEMAR\MATLAB\JSBSIMMATLAB\JSBSIM\SRC\MODELS\FGEXTERNALFORCE.CPP
/c /IC:\agodemar\matlab\jsbsimmatlab\JSBSim\src /IC:\agodemar\matlab\jsbsimmatlab\JSBSim\src\simgear\xml /I"C:\Program Files\Microsoft Platform SDK for Windows Server 2003 R2\Include" /Zi /nologo /W1 /WX- /Ox /Ot /GL /D WIN32 /D NDEBUG /D _CONSOLE /D HAVE_EXPAT_CONFIG_H /D _USE_MATH_DEFINES /Gm- /EHsc /MD /GS /arch:SSE2 /fp:fast /Zc:wchar_t /Zc:forScope /Fo"X64\JSBSIM64\\" /Fd"X64\JSBSIM64\VC110.PDB" /Gd /TP C:\AGODEMAR\MATLAB\JSBSIMMATLAB\JSBSIM\SRC\MODELS\FGEXTERNALFORCE.CPP
^C:\AGODEMAR\MATLAB\JSBSIMMATLAB\JSBSIM\SRC\MODELS\FGEXTERNALREACTIONS.CPP
/c /IC:\agodemar\matlab\jsbsimmatlab\JSBSim\src /IC:\agodemar\matlab\jsbsimmatlab\JSBSim\src\simgear\xml /I"C:\Program Files\Microsoft Platform SDK for Windows Server 2003 R2\Include" /Zi /nologo /W1 /WX- /Ox /Ot /GL /D WIN32 /D NDEBUG /D _CONSOLE /D HAVE_EXPAT_CONFIG_H /D _USE_MATH_DEFINES /Gm- /EHsc /MD /GS /arch:SSE2 /fp:fast /Zc:wchar_t /Zc:forScope /Fo"X64\JSBSIM64\\" /Fd"X64\JSBSIM64\VC110.PDB" /Gd /TP C:\AGODEMAR\MATLAB\JSBSIMMATLAB\JSBSIM\SRC\MODELS\FGEXTERNALREACTIONS.CPP
^C:\AGODEMAR\MATLAB\JSBSIMMATLAB\JSBSIM\SRC\MODELS\FGFCS.CPP
/c /IC:\agodemar\matlab\jsbsimmatlab\JSBSim\src /IC:\agodemar\matlab\jsbsimmatlab\JSBSim\src\simgear\xml /I"C:\Program Files\Microsoft Platform SDK for Windows Server 2003 R2\Include" /Zi /nologo /W1 /WX- /Ox /Ot /GL /D WIN32 /D NDEBUG /D _CONSOLE /D HAVE_EXPAT_CONFIG_H /D _USE_MATH_DEFINES /Gm- /EHsc /MD /GS /arch:SSE2 /fp:fast /Zc:wchar_t /Zc:forScope /Fo"X64\JSBSIM64\\" /Fd"X64\JSBSIM64\VC110.PDB" /Gd /TP C:\AGODEMAR\MATLAB\JSBSIMMATLAB\JSBSIM\SRC\MODELS\FGFCS.CPP
^C:\AGODEMAR\MATLAB\JSBSIMMATLAB\JSBSIM\SRC\MODELS\FLIGHT_CONTROL\FGFCSCOMPONENT.CPP
/c /IC:\agodemar\matlab\jsbsimmatlab\JSBSim\src /IC:\agodemar\matlab\jsbsimmatlab\JSBSim\src\simgear\xml /I"C:\Program Files\Microsoft Platform SDK for Windows Server 2003 R2\Include" /Zi /nologo /W1 /WX- /Ox /Ot /GL /D WIN32 /D NDEBUG /D _CONSOLE /D HAVE_EXPAT_CONFIG_H /D _USE_MATH_DEFINES /Gm- /EHsc /MD /GS /arch:SSE2 /fp:fast /Zc:wchar_t /Zc:forScope /Fo"X64\JSBSIM64\\" /Fd"X64\JSBSIM64\VC110.PDB" /Gd /TP C:\AGODEMAR\MATLAB\JSBSIMMATLAB\JSBSIM\SRC\MODELS\FLIGHT_CONTROL\FGFCSCOMPONENT.CPP
^C:\AGODEMAR\MATLAB\JSBSIMMATLAB\JSBSIM\SRC\MODELS\FLIGHT_CONTROL\FGFCSFUNCTION.CPP
/c /IC:\agodemar\matlab\jsbsimmatlab\JSBSim\src /IC:\agodemar\matlab\jsbsimmatlab\JSBSim\src\simgear\xml /I"C:\Program Files\Microsoft Platform SDK for Windows Server 2003 R2\Include" /Zi /nologo /W1 /WX- /Ox /Ot /GL /D WIN32 /D NDEBUG /D _CONSOLE /D HAVE_EXPAT_CONFIG_H /D _USE_MATH_DEFINES /Gm- /EHsc /MD /GS /arch:SSE2 /fp:fast /Zc:wchar_t /Zc:forScope /Fo"X64\JSBSIM64\\" /Fd"X64\JSBSIM64\VC110.PDB" /Gd /TP C:\AGODEMAR\MATLAB\JSBSIMMATLAB\JSBSIM\SRC\MODELS\FLIGHT_CONTROL\FGFCSFUNCTION.CPP
^C:\AGODEMAR\MATLAB\JSBSIMMATLAB\JSBSIM\SRC\FGFDMEXEC.CPP
/c /IC:\agodemar\matlab\jsbsimmatlab\JSBSim\src /IC:\agodemar\matlab\jsbsimmatlab\JSBSim\src\simgear\xml /I"C:\Program Files\Microsoft Platform SDK for Windows Server 2003 R2\Include" /Zi /nologo /W1 /WX- /Ox /Ot /GL /D WIN32 /D NDEBUG /D _CONSOLE /D HAVE_EXPAT_CONFIG_H /D _USE_MATH_DEFINES /Gm- /EHsc /MD /GS /arch:SSE2 /fp:fast /Zc:wchar_t /Zc:forScope /Fo"X64\JSBSIM64\\" /Fd"X64\JSBSIM64\VC110.PDB" /Gd /TP C:\AGODEMAR\MATLAB\JSBSIMMATLAB\JSBSIM\SRC\FGFDMEXEC.CPP
^C:\AGODEMAR\MATLAB\JSBSIMMATLAB\JSBSIM\SRC\INPUT_OUTPUT\FGFDMSOCKET.CPP
/c /IC:\agodemar\matlab\jsbsimmatlab\JSBSim\src /IC:\agodemar\matlab\jsbsimmatlab\JSBSim\src\simgear\xml /I"C:\Program Files\Microsoft Platform SDK for Windows Server 2003 R2\Include" /Zi /nologo /W1 /WX- /Ox /Ot /GL /D WIN32 /D NDEBUG /D _CONSOLE /D HAVE_EXPAT_CONFIG_H /D _USE_MATH_DEFINES /Gm- /EHsc /MD /GS /arch:SSE2 /fp:fast /Zc:wchar_t /Zc:forScope /Fo"X64\JSBSIM64\\" /Fd"X64\JSBSIM64\VC110.PDB" /Gd /TP C:\AGODEMAR\MATLAB\JSBSIMMATLAB\JSBSIM\SRC\INPUT_OUTPUT\FGFDMSOCKET.CPP
^C:\AGODEMAR\MATLAB\JSBSIMMATLAB\JSBSIM\SRC\MODELS\FLIGHT_CONTROL\FGFILTER.CPP
/c /IC:\agodemar\matlab\jsbsimmatlab\JSBSim\src /IC:\agodemar\matlab\jsbsimmatlab\JSBSim\src\simgear\xml /I"C:\Program Files\Microsoft Platform SDK for Windows Server 2003 R2\Include" /Zi /nologo /W1 /WX- /Ox /Ot /GL /D WIN32 /D NDEBUG /D _CONSOLE /D HAVE_EXPAT_CONFIG_H /D _USE_MATH_DEFINES /Gm- /EHsc /MD /GS /arch:SSE2 /fp:fast /Zc:wchar_t /Zc:forScope /Fo"X64\JSBSIM64\\" /Fd"X64\JSBSIM64\VC110.PDB" /Gd /TP C:\AGODEMAR\MATLAB\JSBSIMMATLAB\JSBSIM\SRC\MODELS\FLIGHT_CONTROL\FGFILTER.CPP
^C:\AGODEMAR\MATLAB\JSBSIMMATLAB\JSBSIM\SRC\MODELS\PROPULSION\FGFORCE.CPP
/c /IC:\agodemar\matlab\jsbsimmatlab\JSBSim\src /IC:\agodemar\matlab\jsbsimmatlab\JSBSim\src\simgear\xml /I"C:\Program Files\Microsoft Platform SDK for Windows Server 2003 R2\Include" /Zi /nologo /W1 /WX- /Ox /Ot /GL /D WIN32 /D NDEBUG /D _CONSOLE /D HAVE_EXPAT_CONFIG_H /D _USE_MATH_DEFINES /Gm- /EHsc /MD /GS /arch:SSE2 /fp:fast /Zc:wchar_t /Zc:forScope /Fo"X64\JSBSIM64\\" /Fd"X64\JSBSIM64\VC110.PDB" /Gd /TP C:\AGODEMAR\MATLAB\JSBSIMMATLAB\JSBSIM\SRC\MODELS\PROPULSION\FGFORCE.CPP
^C:\AGODEMAR\MATLAB\JSBSIMMATLAB\JSBSIM\SRC\MATH\FGFUNCTION.CPP
/c /IC:\agodemar\matlab\jsbsimmatlab\JSBSim\src /IC:\agodemar\matlab\jsbsimmatlab\JSBSim\src\simgear\xml /I"C:\Program Files\Microsoft Platform SDK for Windows Server 2003 R2\Include" /Zi /nologo /W1 /WX- /Ox /Ot /GL /D WIN32 /D NDEBUG /D _CONSOLE /D HAVE_EXPAT_CONFIG_H /D _USE_MATH_DEFINES /Gm- /EHsc /MD /GS /arch:SSE2 /fp:fast /Zc:wchar_t /Zc:forScope /Fo"X64\JSBSIM64\\" /Fd"X64\JSBSIM64\VC110.PDB" /Gd /TP C:\AGODEMAR\MATLAB\JSBSIMMATLAB\JSBSIM\SRC\MATH\FGFUNCTION.CPP
^C:\AGODEMAR\MATLAB\JSBSIMMATLAB\JSBSIM\SRC\MODELS\FLIGHT_CONTROL\FGGAIN.CPP
/c /IC:\agodemar\matlab\jsbsimmatlab\JSBSim\src /IC:\agodemar\matlab\jsbsimmatlab\JSBSim\src\simgear\xml /I"C:\Program Files\Microsoft Platform SDK for Windows Server 2003 R2\Include" /Zi /nologo /W1 /WX- /Ox /Ot /GL /D WIN32 /D NDEBUG /D _CONSOLE /D HAVE_EXPAT_CONFIG_H /D _USE_MATH_DEFINES /Gm- /EHsc /MD /GS /arch:SSE2 /fp:fast /Zc:wchar_t /Zc:forScope /Fo"X64\JSBSIM64\\" /Fd"X64\JSBSIM64\VC110.PDB" /Gd /TP C:\AGODEMAR\MATLAB\JSBSIMMATLAB\JSBSIM\SRC\MODELS\FLIGHT_CONTROL\FGGAIN.CPP
^C:\AGODEMAR\MATLAB\JSBSIMMATLAB\JSBSIM\SRC\MODELS\FGGASCELL.CPP
/c /IC:\agodemar\matlab\jsbsimmatlab\JSBSim\src /IC:\agodemar\matlab\jsbsimmatlab\JSBSim\src\simgear\xml /I"C:\Program Files\Microsoft Platform SDK for Windows Server 2003 R2\Include" /Zi /nologo /W1 /WX- /Ox /Ot /GL /D WIN32 /D NDEBUG /D _CONSOLE /D HAVE_EXPAT_CONFIG_H /D _USE_MATH_DEFINES /Gm- /EHsc /MD /GS /arch:SSE2 /fp:fast /Zc:wchar_t /Zc:forScope /Fo"X64\JSBSIM64\\" /Fd"X64\JSBSIM64\VC110.PDB" /Gd /TP C:\AGODEMAR\MATLAB\JSBSIMMATLAB\JSBSIM\SRC\MODELS\FGGASCELL.CPP
^C:\AGODEMAR\MATLAB\JSBSIMMATLAB\JSBSIM\SRC\INPUT_OUTPUT\FGGROUNDCALLBACK.CPP
/c /IC:\agodemar\matlab\jsbsimmatlab\JSBSim\src /IC:\agodemar\matlab\jsbsimmatlab\JSBSim\src\simgear\xml /I"C:\Program Files\Microsoft Platform SDK for Windows Server 2003 R2\Include" /Zi /nologo /W1 /WX- /Ox /Ot /GL /D WIN32 /D NDEBUG /D _CONSOLE /D HAVE_EXPAT_CONFIG_H /D _USE_MATH_DEFINES /Gm- /EHsc /MD /GS /arch:SSE2 /fp:fast /Zc:wchar_t /Zc:forScope /Fo"X64\JSBSIM64\\" /Fd"X64\JSBSIM64\VC110.PDB" /Gd /TP C:\AGODEMAR\MATLAB\JSBSIMMATLAB\JSBSIM\SRC\INPUT_OUTPUT\FGGROUNDCALLBACK.CPP
^C:\AGODEMAR\MATLAB\JSBSIMMATLAB\JSBSIM\SRC\MODELS\FGGROUNDREACTIONS.CPP
/c /IC:\agodemar\matlab\jsbsimmatlab\JSBSim\src /IC:\agodemar\matlab\jsbsimmatlab\JSBSim\src\simgear\xml /I"C:\Program Files\Microsoft Platform SDK for Windows Server 2003 R2\Include" /Zi /nologo /W1 /WX- /Ox /Ot /GL /D WIN32 /D NDEBUG /D _CONSOLE /D HAVE_EXPAT_CONFIG_H /D _USE_MATH_DEFINES /Gm- /EHsc /MD /GS /arch:SSE2 /fp:fast /Zc:wchar_t /Zc:forScope /Fo"X64\JSBSIM64\\" /Fd"X64\JSBSIM64\VC110.PDB" /Gd /TP C:\AGODEMAR\MATLAB\JSBSIMMATLAB\JSBSIM\SRC\MODELS\FGGROUNDREACTIONS.CPP
^C:\AGODEMAR\MATLAB\JSBSIMMATLAB\JSBSIM\SRC\MODELS\FLIGHT_CONTROL\FGGYRO.CPP
/c /IC:\agodemar\matlab\jsbsimmatlab\JSBSim\src /IC:\agodemar\matlab\jsbsimmatlab\JSBSim\src\simgear\xml /I"C:\Program Files\Microsoft Platform SDK for Windows Server 2003 R2\Include" /Zi /nologo /W1 /WX- /Ox /Ot /GL /D WIN32 /D NDEBUG /D _CONSOLE /D HAVE_EXPAT_CONFIG_H /D _USE_MATH_DEFINES /Gm- /EHsc /MD /GS /arch:SSE2 /fp:fast /Zc:wchar_t /Zc:forScope /Fo"X64\JSBSIM64\\" /Fd"X64\JSBSIM64\VC110.PDB" /Gd /TP C:\AGODEMAR\MATLAB\JSBSIMMATLAB\JSBSIM\SRC\MODELS\FLIGHT_CONTROL\FGGYRO.CPP
^C:\AGODEMAR\MATLAB\JSBSIMMATLAB\JSBSIM\SRC\MODELS\FGINERTIAL.CPP
/c /IC:\agodemar\matlab\jsbsimmatlab\JSBSim\src /IC:\agodemar\matlab\jsbsimmatlab\JSBSim\src\simgear\xml /I"C:\Program Files\Microsoft Platform SDK for Windows Server 2003 R2\Include" /Zi /nologo /W1 /WX- /Ox /Ot /GL /D WIN32 /D NDEBUG /D _CONSOLE /D HAVE_EXPAT_CONFIG_H /D _USE_MATH_DEFINES /Gm- /EHsc /MD /GS /arch:SSE2 /fp:fast /Zc:wchar_t /Zc:forScope /Fo"X64\JSBSIM64\\" /Fd"X64\JSBSIM64\VC110.PDB" /Gd /TP C:\AGODEMAR\MATLAB\JSBSIMMATLAB\JSBSIM\SRC\MODELS\FGINERTIAL.CPP
^C:\AGODEMAR\MATLAB\JSBSIMMATLAB\JSBSIM\SRC\INITIALIZATION\FGINITIALCONDITION.CPP
/c /IC:\agodemar\matlab\jsbsimmatlab\JSBSim\src /IC:\agodemar\matlab\jsbsimmatlab\JSBSim\src\simgear\xml /I"C:\Program Files\Microsoft Platform SDK for Windows Server 2003 R2\Include" /Zi /nologo /W1 /WX- /Ox /Ot /GL /D WIN32 /D NDEBUG /D _CONSOLE /D HAVE_EXPAT_CONFIG_H /D _USE_MATH_DEFINES /Gm- /EHsc /MD /GS /arch:SSE2 /fp:fast /Zc:wchar_t /Zc:forScope /Fo"X64\JSBSIM64\\" /Fd"X64\JSBSIM64\VC110.PDB" /Gd /TP C:\AGODEMAR\MATLAB\JSBSIMMATLAB\JSBSIM\SRC\INITIALIZATION\FGINITIALCONDITION.CPP
^C:\AGODEMAR\MATLAB\JSBSIMMATLAB\JSBSIM\SRC\MODELS\FGINPUT.CPP
/c /IC:\agodemar\matlab\jsbsimmatlab\JSBSim\src /IC:\agodemar\matlab\jsbsimmatlab\JSBSim\src\simgear\xml /I"C:\Program Files\Microsoft Platform SDK for Windows Server 2003 R2\Include" /Zi /nologo /W1 /WX- /Ox /Ot /GL /D WIN32 /D NDEBUG /D _CONSOLE /D HAVE_EXPAT_CONFIG_H /D _USE_MATH_DEFINES /Gm- /EHsc /MD /GS /arch:SSE2 /fp:fast /Zc:wchar_t /Zc:forScope /Fo"X64\JSBSIM64\\" /Fd"X64\JSBSIM64\VC110.PDB" /Gd /TP C:\AGODEMAR\MATLAB\JSBSIMMATLAB\JSBSIM\SRC\MODELS\FGINPUT.CPP
^C:\AGODEMAR\MATLAB\JSBSIMMATLAB\JSBSIM\SRC\FGJSBBASE.CPP
/c /IC:\agodemar\matlab\jsbsimmatlab\JSBSim\src /IC:\agodemar\matlab\jsbsimmatlab\JSBSim\src\simgear\xml /I"C:\Program Files\Microsoft Platform SDK for Windows Server 2003 R2\Include" /Zi /nologo /W1 /WX- /Ox /Ot /GL /D WIN32 /D NDEBUG /D _CONSOLE /D HAVE_EXPAT_CONFIG_H /D _USE_MATH_DEFINES /Gm- /EHsc /MD /GS /arch:SSE2 /fp:fast /Zc:wchar_t /Zc:forScope /Fo"X64\JSBSIM64\\" /Fd"X64\JSBSIM64\VC110.PDB" /Gd /TP C:\AGODEMAR\MATLAB\JSBSIMMATLAB\JSBSIM\SRC\FGJSBBASE.CPP
^C:\AGODEMAR\MATLAB\JSBSIMMATLAB\JSBSIM\SRC\MODELS\FLIGHT_CONTROL\FGKINEMAT.CPP
/c /IC:\agodemar\matlab\jsbsimmatlab\JSBSim\src /IC:\agodemar\matlab\jsbsimmatlab\JSBSim\src\simgear\xml /I"C:\Program Files\Microsoft Platform SDK for Windows Server 2003 R2\Include" /Zi /nologo /W1 /WX- /Ox /Ot /GL /D WIN32 /D NDEBUG /D _CONSOLE /D HAVE_EXPAT_CONFIG_H /D _USE_MATH_DEFINES /Gm- /EHsc /MD /GS /arch:SSE2 /fp:fast /Zc:wchar_t /Zc:forScope /Fo"X64\JSBSIM64\\" /Fd"X64\JSBSIM64\VC110.PDB" /Gd /TP C:\AGODEMAR\MATLAB\JSBSIMMATLAB\JSBSIM\SRC\MODELS\FLIGHT_CONTROL\FGKINEMAT.CPP
^C:\AGODEMAR\MATLAB\JSBSIMMATLAB\JSBSIM\SRC\MODELS\FGLGEAR.CPP
/c /IC:\agodemar\matlab\jsbsimmatlab\JSBSim\src /IC:\agodemar\matlab\jsbsimmatlab\JSBSim\src\simgear\xml /I"C:\Program Files\Microsoft Platform SDK for Windows Server 2003 R2\Include" /Zi /nologo /W1 /WX- /Ox /Ot /GL /D WIN32 /D NDEBUG /D _CONSOLE /D HAVE_EXPAT_CONFIG_H /D _USE_MATH_DEFINES /Gm- /EHsc /MD /GS /arch:SSE2 /fp:fast /Zc:wchar_t /Zc:forScope /Fo"X64\JSBSIM64\\" /Fd"X64\JSBSIM64\VC110.PDB" /Gd /TP C:\AGODEMAR\MATLAB\JSBSIMMATLAB\JSBSIM\SRC\MODELS\FGLGEAR.CPP
^C:\AGODEMAR\MATLAB\JSBSIMMATLAB\JSBSIM\SRC\MATH\FGLOCATION.CPP
/c /IC:\agodemar\matlab\jsbsimmatlab\JSBSim\src /IC:\agodemar\matlab\jsbsimmatlab\JSBSim\src\simgear\xml /I"C:\Program Files\Microsoft Platform SDK for Windows Server 2003 R2\Include" /Zi /nologo /W1 /WX- /Ox /Ot /GL /D WIN32 /D NDEBUG /D _CONSOLE /D HAVE_EXPAT_CONFIG_H /D _USE_MATH_DEFINES /Gm- /EHsc /MD /GS /arch:SSE2 /fp:fast /Zc:wchar_t /Zc:forScope /Fo"X64\JSBSIM64\\" /Fd"X64\JSBSIM64\VC110.PDB" /Gd /TP C:\AGODEMAR\MATLAB\JSBSIMMATLAB\JSBSIM\SRC\MATH\FGLOCATION.CPP
^C:\AGODEMAR\MATLAB\JSBSIMMATLAB\JSBSIM\SRC\MODELS\FLIGHT_CONTROL\FGMAGNETOMETER.CPP
/c /IC:\agodemar\matlab\jsbsimmatlab\JSBSim\src /IC:\agodemar\matlab\jsbsimmatlab\JSBSim\src\simgear\xml /I"C:\Program Files\Microsoft Platform SDK for Windows Server 2003 R2\Include" /Zi /nologo /W1 /WX- /Ox /Ot /GL /D WIN32 /D NDEBUG /D _CONSOLE /D HAVE_EXPAT_CONFIG_H /D _USE_MATH_DEFINES /Gm- /EHsc /MD /GS /arch:SSE2 /fp:fast /Zc:wchar_t /Zc:forScope /Fo"X64\JSBSIM64\\" /Fd"X64\JSBSIM64\VC110.PDB" /Gd /TP C:\AGODEMAR\MATLAB\JSBSIMMATLAB\JSBSIM\SRC\MODELS\FLIGHT_CONTROL\FGMAGNETOMETER.CPP
^C:\AGODEMAR\MATLAB\JSBSIMMATLAB\JSBSIM\SRC\MODELS\ATMOSPHERE\FGMARS.CPP
/c /IC:\agodemar\matlab\jsbsimmatlab\JSBSim\src /IC:\agodemar\matlab\jsbsimmatlab\JSBSim\src\simgear\xml /I"C:\Program Files\Microsoft Platform SDK for Windows Server 2003 R2\Include" /Zi /nologo /W1 /WX- /Ox /Ot /GL /D WIN32 /D NDEBUG /D _CONSOLE /D HAVE_EXPAT_CONFIG_H /D _USE_MATH_DEFINES /Gm- /EHsc /MD /GS /arch:SSE2 /fp:fast /Zc:wchar_t /Zc:forScope /Fo"X64\JSBSIM64\\" /Fd"X64\JSBSIM64\VC110.PDB" /Gd /TP C:\AGODEMAR\MATLAB\JSBSIMMATLAB\JSBSIM\SRC\MODELS\ATMOSPHERE\FGMARS.CPP
^C:\AGODEMAR\MATLAB\JSBSIMMATLAB\JSBSIM\SRC\MODELS\FGMASSBALANCE.CPP
/c /IC:\agodemar\matlab\jsbsimmatlab\JSBSim\src /IC:\agodemar\matlab\jsbsimmatlab\JSBSim\src\simgear\xml /I"C:\Program Files\Microsoft Platform SDK for Windows Server 2003 R2\Include" /Zi /nologo /W1 /WX- /Ox /Ot /GL /D WIN32 /D NDEBUG /D _CONSOLE /D HAVE_EXPAT_CONFIG_H /D _USE_MATH_DEFINES /Gm- /EHsc /MD /GS /arch:SSE2 /fp:fast /Zc:wchar_t /Zc:forScope /Fo"X64\JSBSIM64\\" /Fd"X64\JSBSIM64\VC110.PDB" /Gd /TP C:\AGODEMAR\MATLAB\JSBSIMMATLAB\JSBSIM\SRC\MODELS\FGMASSBALANCE.CPP
^C:\AGODEMAR\MATLAB\JSBSIMMATLAB\JSBSIM\SRC\MATH\FGMATRIX33.CPP
/c /IC:\agodemar\matlab\jsbsimmatlab\JSBSim\src /IC:\agodemar\matlab\jsbsimmatlab\JSBSim\src\simgear\xml /I"C:\Program Files\Microsoft Platform SDK for Windows Server 2003 R2\Include" /Zi /nologo /W1 /WX- /Ox /Ot /GL /D WIN32 /D NDEBUG /D _CONSOLE /D HAVE_EXPAT_CONFIG_H /D _USE_MATH_DEFINES /Gm- /EHsc /MD /GS /arch:SSE2 /fp:fast /Zc:wchar_t /Zc:forScope /Fo"X64\JSBSIM64\\" /Fd"X64\JSBSIM64\VC110.PDB" /Gd /TP C:\AGODEMAR\MATLAB\JSBSIMMATLAB\JSBSIM\SRC\MATH\FGMATRIX33.CPP
^C:\AGODEMAR\MATLAB\JSBSIMMATLAB\JSBSIM\SRC\MODELS\FGMODEL.CPP
/c /IC:\agodemar\matlab\jsbsimmatlab\JSBSim\src /IC:\agodemar\matlab\jsbsimmatlab\JSBSim\src\simgear\xml /I"C:\Program Files\Microsoft Platform SDK for Windows Server 2003 R2\Include" /Zi /nologo /W1 /WX- /Ox /Ot /GL /D WIN32 /D NDEBUG /D _CONSOLE /D HAVE_EXPAT_CONFIG_H /D _USE_MATH_DEFINES /Gm- /EHsc /MD /GS /arch:SSE2 /fp:fast /Zc:wchar_t /Zc:forScope /Fo"X64\JSBSIM64\\" /Fd"X64\JSBSIM64\VC110.PDB" /Gd /TP C:\AGODEMAR\MATLAB\JSBSIMMATLAB\JSBSIM\SRC\MODELS\FGMODEL.CPP
^C:\AGODEMAR\MATLAB\JSBSIMMATLAB\JSBSIM\SRC\MATH\FGMODELFUNCTIONS.CPP
/c /IC:\agodemar\matlab\jsbsimmatlab\JSBSim\src /IC:\agodemar\matlab\jsbsimmatlab\JSBSim\src\simgear\xml /I"C:\Program Files\Microsoft Platform SDK for Windows Server 2003 R2\Include" /Zi /nologo /W1 /WX- /Ox /Ot /GL /D WIN32 /D NDEBUG /D _CONSOLE /D HAVE_EXPAT_CONFIG_H /D _USE_MATH_DEFINES /Gm- /EHsc /MD /GS /arch:SSE2 /fp:fast /Zc:wchar_t /Zc:forScope /Fo"X64\JSBSIM64\\" /Fd"X64\JSBSIM64\VC110.PDB" /Gd /TP C:\AGODEMAR\MATLAB\JSBSIMMATLAB\JSBSIM\SRC\MATH\FGMODELFUNCTIONS.CPP
^C:\AGODEMAR\MATLAB\JSBSIMMATLAB\JSBSIM\SRC\MODELS\ATMOSPHERE\FGMSIS.CPP
/c /IC:\agodemar\matlab\jsbsimmatlab\JSBSim\src /IC:\agodemar\matlab\jsbsimmatlab\JSBSim\src\simgear\xml /I"C:\Program Files\Microsoft Platform SDK for Windows Server 2003 R2\Include" /Zi /nologo /W1 /WX- /Ox /Ot /GL /D WIN32 /D NDEBUG /D _CONSOLE /D HAVE_EXPAT_CONFIG_H /D _USE_MATH_DEFINES /Gm- /EHsc /MD /GS /arch:SSE2 /fp:fast /Zc:wchar_t /Zc:forScope /Fo"X64\JSBSIM64\\" /Fd"X64\JSBSIM64\VC110.PDB" /Gd /TP C:\AGODEMAR\MATLAB\JSBSIMMATLAB\JSBSIM\SRC\MODELS\ATMOSPHERE\FGMSIS.CPP
^C:\AGODEMAR\MATLAB\JSBSIMMATLAB\JSBSIM\SRC\MODELS\ATMOSPHERE\FGMSISDATA.CPP
/c /IC:\agodemar\matlab\jsbsimmatlab\JSBSim\src /IC:\agodemar\matlab\jsbsimmatlab\JSBSim\src\simgear\xml /I"C:\Program Files\Microsoft Platform SDK for Windows Server 2003 R2\Include" /Zi /nologo /W1 /WX- /Ox /Ot /GL /D WIN32 /D NDEBUG /D _CONSOLE /D HAVE_EXPAT_CONFIG_H /D _USE_MATH_DEFINES /Gm- /EHsc /MD /GS /arch:SSE2 /fp:fast /Zc:wchar_t /Zc:forScope /Fo"X64\JSBSIM64\\" /Fd"X64\JSBSIM64\VC110.PDB" /Gd /TP C:\AGODEMAR\MATLAB\JSBSIMMATLAB\JSBSIM\SRC\MODELS\ATMOSPHERE\FGMSISDATA.CPP
^C:\AGODEMAR\MATLAB\JSBSIMMATLAB\JSBSIM\SRC\MODELS\PROPULSION\FGNOZZLE.CPP
/c /IC:\agodemar\matlab\jsbsimmatlab\JSBSim\src /IC:\agodemar\matlab\jsbsimmatlab\JSBSim\src\simgear\xml /I"C:\Program Files\Microsoft Platform SDK for Windows Server 2003 R2\Include" /Zi /nologo /W1 /WX- /Ox /Ot /GL /D WIN32 /D NDEBUG /D _CONSOLE /D HAVE_EXPAT_CONFIG_H /D _USE_MATH_DEFINES /Gm- /EHsc /MD /GS /arch:SSE2 /fp:fast /Zc:wchar_t /Zc:forScope /Fo"X64\JSBSIM64\\" /Fd"X64\JSBSIM64\VC110.PDB" /Gd /TP C:\AGODEMAR\MATLAB\JSBSIMMATLAB\JSBSIM\SRC\MODELS\PROPULSION\FGNOZZLE.CPP
^C:\AGODEMAR\MATLAB\JSBSIMMATLAB\JSBSIM\SRC\MODELS\FGOUTPUT.CPP
/c /IC:\agodemar\matlab\jsbsimmatlab\JSBSim\src /IC:\agodemar\matlab\jsbsimmatlab\JSBSim\src\simgear\xml /I"C:\Program Files\Microsoft Platform SDK for Windows Server 2003 R2\Include" /Zi /nologo /W1 /WX- /Ox /Ot /GL /D WIN32 /D NDEBUG /D _CONSOLE /D HAVE_EXPAT_CONFIG_H /D _USE_MATH_DEFINES /Gm- /EHsc /MD /GS /arch:SSE2 /fp:fast /Zc:wchar_t /Zc:forScope /Fo"X64\JSBSIM64\\" /Fd"X64\JSBSIM64\VC110.PDB" /Gd /TP C:\AGODEMAR\MATLAB\JSBSIMMATLAB\JSBSIM\SRC\MODELS\FGOUTPUT.CPP
^C:\AGODEMAR\MATLAB\JSBSIMMATLAB\JSBSIM\SRC\MODELS\FLIGHT_CONTROL\FGPID.CPP
/c /IC:\agodemar\matlab\jsbsimmatlab\JSBSim\src /IC:\agodemar\matlab\jsbsimmatlab\JSBSim\src\simgear\xml /I"C:\Program Files\Microsoft Platform SDK for Windows Server 2003 R2\Include" /Zi /nologo /W1 /WX- /Ox /Ot /GL /D WIN32 /D NDEBUG /D _CONSOLE /D HAVE_EXPAT_CONFIG_H /D _USE_MATH_DEFINES /Gm- /EHsc /MD /GS /arch:SSE2 /fp:fast /Zc:wchar_t /Zc:forScope /Fo"X64\JSBSIM64\\" /Fd"X64\JSBSIM64\VC110.PDB" /Gd /TP C:\AGODEMAR\MATLAB\JSBSIMMATLAB\JSBSIM\SRC\MODELS\FLIGHT_CONTROL\FGPID.CPP
^C:\AGODEMAR\MATLAB\JSBSIMMATLAB\JSBSIM\SRC\MODELS\PROPULSION\FGPISTON.CPP
/c /IC:\agodemar\matlab\jsbsimmatlab\JSBSim\src /IC:\agodemar\matlab\jsbsimmatlab\JSBSim\src\simgear\xml /I"C:\Program Files\Microsoft Platform SDK for Windows Server 2003 R2\Include" /Zi /nologo /W1 /WX- /Ox /Ot /GL /D WIN32 /D NDEBUG /D _CONSOLE /D HAVE_EXPAT_CONFIG_H /D _USE_MATH_DEFINES /Gm- /EHsc /MD /GS /arch:SSE2 /fp:fast /Zc:wchar_t /Zc:forScope /Fo"X64\JSBSIM64\\" /Fd"X64\JSBSIM64\VC110.PDB" /Gd /TP C:\AGODEMAR\MATLAB\JSBSIMMATLAB\JSBSIM\SRC\MODELS\PROPULSION\FGPISTON.CPP
^C:\AGODEMAR\MATLAB\JSBSIMMATLAB\JSBSIM\SRC\MODELS\FGPROPAGATE.CPP
/c /IC:\agodemar\matlab\jsbsimmatlab\JSBSim\src /IC:\agodemar\matlab\jsbsimmatlab\JSBSim\src\simgear\xml /I"C:\Program Files\Microsoft Platform SDK for Windows Server 2003 R2\Include" /Zi /nologo /W1 /WX- /Ox /Ot /GL /D WIN32 /D NDEBUG /D _CONSOLE /D HAVE_EXPAT_CONFIG_H /D _USE_MATH_DEFINES /Gm- /EHsc /MD /GS /arch:SSE2 /fp:fast /Zc:wchar_t /Zc:forScope /Fo"X64\JSBSIM64\\" /Fd"X64\JSBSIM64\VC110.PDB" /Gd /TP C:\AGODEMAR\MATLAB\JSBSIMMATLAB\JSBSIM\SRC\MODELS\FGPROPAGATE.CPP
^C:\AGODEMAR\MATLAB\JSBSIMMATLAB\JSBSIM\SRC\MODELS\PROPULSION\FGPROPELLER.CPP
/c /IC:\agodemar\matlab\jsbsimmatlab\JSBSim\src /IC:\agodemar\matlab\jsbsimmatlab\JSBSim\src\simgear\xml /I"C:\Program Files\Microsoft Platform SDK for Windows Server 2003 R2\Include" /Zi /nologo /W1 /WX- /Ox /Ot /GL /D WIN32 /D NDEBUG /D _CONSOLE /D HAVE_EXPAT_CONFIG_H /D _USE_MATH_DEFINES /Gm- /EHsc /MD /GS /arch:SSE2 /fp:fast /Zc:wchar_t /Zc:forScope /Fo"X64\JSBSIM64\\" /Fd"X64\JSBSIM64\VC110.PDB" /Gd /TP C:\AGODEMAR\MATLAB\JSBSIMMATLAB\JSBSIM\SRC\MODELS\PROPULSION\FGPROPELLER.CPP
^C:\AGODEMAR\MATLAB\JSBSIMMATLAB\JSBSIM\SRC\INPUT_OUTPUT\FGPROPERTYMANAGER.CPP
/c /IC:\agodemar\matlab\jsbsimmatlab\JSBSim\src /IC:\agodemar\matlab\jsbsimmatlab\JSBSim\src\simgear\xml /I"C:\Program Files\Microsoft Platform SDK for Windows Server 2003 R2\Include" /Zi /nologo /W1 /WX- /Ox /Ot /GL /D WIN32 /D NDEBUG /D _CONSOLE /D HAVE_EXPAT_CONFIG_H /D _USE_MATH_DEFINES /Gm- /EHsc /MD /GS /arch:SSE2 /fp:fast /Zc:wchar_t /Zc:forScope /Fo"X64\JSBSIM64\\" /Fd"X64\JSBSIM64\VC110.PDB" /Gd /TP C:\AGODEMAR\MATLAB\JSBSIMMATLAB\JSBSIM\SRC\INPUT_OUTPUT\FGPROPERTYMANAGER.CPP
^C:\AGODEMAR\MATLAB\JSBSIMMATLAB\JSBSIM\SRC\MATH\FGPROPERTYVALUE.CPP
/c /IC:\agodemar\matlab\jsbsimmatlab\JSBSim\src /IC:\agodemar\matlab\jsbsimmatlab\JSBSim\src\simgear\xml /I"C:\Program Files\Microsoft Platform SDK for Windows Server 2003 R2\Include" /Zi /nologo /W1 /WX- /Ox /Ot /GL /D WIN32 /D NDEBUG /D _CONSOLE /D HAVE_EXPAT_CONFIG_H /D _USE_MATH_DEFINES /Gm- /EHsc /MD /GS /arch:SSE2 /fp:fast /Zc:wchar_t /Zc:forScope /Fo"X64\JSBSIM64\\" /Fd"X64\JSBSIM64\VC110.PDB" /Gd /TP C:\AGODEMAR\MATLAB\JSBSIMMATLAB\JSBSIM\SRC\MATH\FGPROPERTYVALUE.CPP
^C:\AGODEMAR\MATLAB\JSBSIMMATLAB\JSBSIM\SRC\MODELS\FGPROPULSION.CPP
/c /IC:\agodemar\matlab\jsbsimmatlab\JSBSim\src /IC:\agodemar\matlab\jsbsimmatlab\JSBSim\src\simgear\xml /I"C:\Program Files\Microsoft Platform SDK for Windows Server 2003 R2\Include" /Zi /nologo /W1 /WX- /Ox /Ot /GL /D WIN32 /D NDEBUG /D _CONSOLE /D HAVE_EXPAT_CONFIG_H /D _USE_MATH_DEFINES /Gm- /EHsc /MD /GS /arch:SSE2 /fp:fast /Zc:wchar_t /Zc:forScope /Fo"X64\JSBSIM64\\" /Fd"X64\JSBSIM64\VC110.PDB" /Gd /TP C:\AGODEMAR\MATLAB\JSBSIMMATLAB\JSBSIM\SRC\MODELS\FGPROPULSION.CPP
^C:\AGODEMAR\MATLAB\JSBSIMMATLAB\JSBSIM\SRC\MATH\FGQUATERNION.CPP
/c /IC:\agodemar\matlab\jsbsimmatlab\JSBSim\src /IC:\agodemar\matlab\jsbsimmatlab\JSBSim\src\simgear\xml /I"C:\Program Files\Microsoft Platform SDK for Windows Server 2003 R2\Include" /Zi /nologo /W1 /WX- /Ox /Ot /GL /D WIN32 /D NDEBUG /D _CONSOLE /D HAVE_EXPAT_CONFIG_H /D _USE_MATH_DEFINES /Gm- /EHsc /MD /GS /arch:SSE2 /fp:fast /Zc:wchar_t /Zc:forScope /Fo"X64\JSBSIM64\\" /Fd"X64\JSBSIM64\VC110.PDB" /Gd /TP C:\AGODEMAR\MATLAB\JSBSIMMATLAB\JSBSIM\SRC\MATH\FGQUATERNION.CPP
^C:\AGODEMAR\MATLAB\JSBSIMMATLAB\JSBSIM\SRC\MATH\FGREALVALUE.CPP
/c /IC:\agodemar\matlab\jsbsimmatlab\JSBSim\src /IC:\agodemar\matlab\jsbsimmatlab\JSBSim\src\simgear\xml /I"C:\Program Files\Microsoft Platform SDK for Windows Server 2003 R2\Include" /Zi /nologo /W1 /WX- /Ox /Ot /GL /D WIN32 /D NDEBUG /D _CONSOLE /D HAVE_EXPAT_CONFIG_H /D _USE_MATH_DEFINES /Gm- /EHsc /MD /GS /arch:SSE2 /fp:fast /Zc:wchar_t /Zc:forScope /Fo"X64\JSBSIM64\\" /Fd"X64\JSBSIM64\VC110.PDB" /Gd /TP C:\AGODEMAR\MATLAB\JSBSIMMATLAB\JSBSIM\SRC\MATH\FGREALVALUE.CPP
^C:\AGODEMAR\MATLAB\JSBSIMMATLAB\JSBSIM\SRC\MODELS\PROPULSION\FGROCKET.CPP
/c /IC:\agodemar\matlab\jsbsimmatlab\JSBSim\src /IC:\agodemar\matlab\jsbsimmatlab\JSBSim\src\simgear\xml /I"C:\Program Files\Microsoft Platform SDK for Windows Server 2003 R2\Include" /Zi /nologo /W1 /WX- /Ox /Ot /GL /D WIN32 /D NDEBUG /D _CONSOLE /D HAVE_EXPAT_CONFIG_H /D _USE_MATH_DEFINES /Gm- /EHsc /MD /GS /arch:SSE2 /fp:fast /Zc:wchar_t /Zc:forScope /Fo"X64\JSBSIM64\\" /Fd"X64\JSBSIM64\VC110.PDB" /Gd /TP C:\AGODEMAR\MATLAB\JSBSIMMATLAB\JSBSIM\SRC\MODELS\PROPULSION\FGROCKET.CPP
^C:\AGODEMAR\MATLAB\JSBSIMMATLAB\JSBSIM\SRC\MODELS\PROPULSION\FGROTOR.CPP
/c /IC:\agodemar\matlab\jsbsimmatlab\JSBSim\src /IC:\agodemar\matlab\jsbsimmatlab\JSBSim\src\simgear\xml /I"C:\Program Files\Microsoft Platform SDK for Windows Server 2003 R2\Include" /Zi /nologo /W1 /WX- /Ox /Ot /GL /D WIN32 /D NDEBUG /D _CONSOLE /D HAVE_EXPAT_CONFIG_H /D _USE_MATH_DEFINES /Gm- /EHsc /MD /GS /arch:SSE2 /fp:fast /Zc:wchar_t /Zc:forScope /Fo"X64\JSBSIM64\\" /Fd"X64\JSBSIM64\VC110.PDB" /Gd /TP C:\AGODEMAR\MATLAB\JSBSIMMATLAB\JSBSIM\SRC\MODELS\PROPULSION\FGROTOR.CPP
^C:\AGODEMAR\MATLAB\JSBSIMMATLAB\JSBSIM\SRC\MATH\FGRUNGEKUTTA.CPP
/c /IC:\agodemar\matlab\jsbsimmatlab\JSBSim\src /IC:\agodemar\matlab\jsbsimmatlab\JSBSim\src\simgear\xml /I"C:\Program Files\Microsoft Platform SDK for Windows Server 2003 R2\Include" /Zi /nologo /W1 /WX- /Ox /Ot /GL /D WIN32 /D NDEBUG /D _CONSOLE /D HAVE_EXPAT_CONFIG_H /D _USE_MATH_DEFINES /Gm- /EHsc /MD /GS /arch:SSE2 /fp:fast /Zc:wchar_t /Zc:forScope /Fo"X64\JSBSIM64\\" /Fd"X64\JSBSIM64\VC110.PDB" /Gd /TP C:\AGODEMAR\MATLAB\JSBSIMMATLAB\JSBSIM\SRC\MATH\FGRUNGEKUTTA.CPP
^C:\AGODEMAR\MATLAB\JSBSIMMATLAB\JSBSIM\SRC\INPUT_OUTPUT\FGSCRIPT.CPP
/c /IC:\agodemar\matlab\jsbsimmatlab\JSBSim\src /IC:\agodemar\matlab\jsbsimmatlab\JSBSim\src\simgear\xml /I"C:\Program Files\Microsoft Platform SDK for Windows Server 2003 R2\Include" /Zi /nologo /W1 /WX- /Ox /Ot /GL /D WIN32 /D NDEBUG /D _CONSOLE /D HAVE_EXPAT_CONFIG_H /D _USE_MATH_DEFINES /Gm- /EHsc /MD /GS /arch:SSE2 /fp:fast /Zc:wchar_t /Zc:forScope /Fo"X64\JSBSIM64\\" /Fd"X64\JSBSIM64\VC110.PDB" /Gd /TP C:\AGODEMAR\MATLAB\JSBSIMMATLAB\JSBSIM\SRC\INPUT_OUTPUT\FGSCRIPT.CPP
^C:\AGODEMAR\MATLAB\JSBSIMMATLAB\JSBSIM\SRC\MODELS\FLIGHT_CONTROL\FGSENSOR.CPP
/c /IC:\agodemar\matlab\jsbsimmatlab\JSBSim\src /IC:\agodemar\matlab\jsbsimmatlab\JSBSim\src\simgear\xml /I"C:\Program Files\Microsoft Platform SDK for Windows Server 2003 R2\Include" /Zi /nologo /W1 /WX- /Ox /Ot /GL /D WIN32 /D NDEBUG /D _CONSOLE /D HAVE_EXPAT_CONFIG_H /D _USE_MATH_DEFINES /Gm- /EHsc /MD /GS /arch:SSE2 /fp:fast /Zc:wchar_t /Zc:forScope /Fo"X64\JSBSIM64\\" /Fd"X64\JSBSIM64\VC110.PDB" /Gd /TP C:\AGODEMAR\MATLAB\JSBSIMMATLAB\JSBSIM\SRC\MODELS\FLIGHT_CONTROL\FGSENSOR.CPP
^C:\AGODEMAR\MATLAB\JSBSIMMATLAB\JSBSIM\SRC\MODELS\FLIGHT_CONTROL\FGSUMMER.CPP
/c /IC:\agodemar\matlab\jsbsimmatlab\JSBSim\src /IC:\agodemar\matlab\jsbsimmatlab\JSBSim\src\simgear\xml /I"C:\Program Files\Microsoft Platform SDK for Windows Server 2003 R2\Include" /Zi /nologo /W1 /WX- /Ox /Ot /GL /D WIN32 /D NDEBUG /D _CONSOLE /D HAVE_EXPAT_CONFIG_H /D _USE_MATH_DEFINES /Gm- /EHsc /MD /GS /arch:SSE2 /fp:fast /Zc:wchar_t /Zc:forScope /Fo"X64\JSBSIM64\\" /Fd"X64\JSBSIM64\VC110.PDB" /Gd /TP C:\AGODEMAR\MATLAB\JSBSIMMATLAB\JSBSIM\SRC\MODELS\FLIGHT_CONTROL\FGSUMMER.CPP
^C:\AGODEMAR\MATLAB\JSBSIMMATLAB\JSBSIM\SRC\MODELS\FLIGHT_CONTROL\FGSWITCH.CPP
/c /IC:\agodemar\matlab\jsbsimmatlab\JSBSim\src /IC:\agodemar\matlab\jsbsimmatlab\JSBSim\src\simgear\xml /I"C:\Program Files\Microsoft Platform SDK for Windows Server 2003 R2\Include" /Zi /nologo /W1 /WX- /Ox /Ot /GL /D WIN32 /D NDEBUG /D _CONSOLE /D HAVE_EXPAT_CONFIG_H /D _USE_MATH_DEFINES /Gm- /EHsc /MD /GS /arch:SSE2 /fp:fast /Zc:wchar_t /Zc:forScope /Fo"X64\JSBSIM64\\" /Fd"X64\JSBSIM64\VC110.PDB" /Gd /TP C:\AGODEMAR\MATLAB\JSBSIMMATLAB\JSBSIM\SRC\MODELS\FLIGHT_CONTROL\FGSWITCH.CPP
^C:\AGODEMAR\MATLAB\JSBSIMMATLAB\JSBSIM\SRC\MATH\FGTABLE.CPP
/c /IC:\agodemar\matlab\jsbsimmatlab\JSBSim\src /IC:\agodemar\matlab\jsbsimmatlab\JSBSim\src\simgear\xml /I"C:\Program Files\Microsoft Platform SDK for Windows Server 2003 R2\Include" /Zi /nologo /W1 /WX- /Ox /Ot /GL /D WIN32 /D NDEBUG /D _CONSOLE /D HAVE_EXPAT_CONFIG_H /D _USE_MATH_DEFINES /Gm- /EHsc /MD /GS /arch:SSE2 /fp:fast /Zc:wchar_t /Zc:forScope /Fo"X64\JSBSIM64\\" /Fd"X64\JSBSIM64\VC110.PDB" /Gd /TP C:\AGODEMAR\MATLAB\JSBSIMMATLAB\JSBSIM\SRC\MATH\FGTABLE.CPP
^C:\AGODEMAR\MATLAB\JSBSIMMATLAB\JSBSIM\SRC\MODELS\PROPULSION\FGTANK.CPP
/c /IC:\agodemar\matlab\jsbsimmatlab\JSBSim\src /IC:\agodemar\matlab\jsbsimmatlab\JSBSim\src\simgear\xml /I"C:\Program Files\Microsoft Platform SDK for Windows Server 2003 R2\Include" /Zi /nologo /W1 /WX- /Ox /Ot /GL /D WIN32 /D NDEBUG /D _CONSOLE /D HAVE_EXPAT_CONFIG_H /D _USE_MATH_DEFINES /Gm- /EHsc /MD /GS /arch:SSE2 /fp:fast /Zc:wchar_t /Zc:forScope /Fo"X64\JSBSIM64\\" /Fd"X64\JSBSIM64\VC110.PDB" /Gd /TP C:\AGODEMAR\MATLAB\JSBSIMMATLAB\JSBSIM\SRC\MODELS\PROPULSION\FGTANK.CPP
^C:\AGODEMAR\MATLAB\JSBSIMMATLAB\JSBSIM\SRC\MODELS\PROPULSION\FGTHRUSTER.CPP
/c /IC:\agodemar\matlab\jsbsimmatlab\JSBSim\src /IC:\agodemar\matlab\jsbsimmatlab\JSBSim\src\simgear\xml /I"C:\Program Files\Microsoft Platform SDK for Windows Server 2003 R2\Include" /Zi /nologo /W1 /WX- /Ox /Ot /GL /D WIN32 /D NDEBUG /D _CONSOLE /D HAVE_EXPAT_CONFIG_H /D _USE_MATH_DEFINES /Gm- /EHsc /MD /GS /arch:SSE2 /fp:fast /Zc:wchar_t /Zc:forScope /Fo"X64\JSBSIM64\\" /Fd"X64\JSBSIM64\VC110.PDB" /Gd /TP C:\AGODEMAR\MATLAB\JSBSIMMATLAB\JSBSIM\SRC\MODELS\PROPULSION\FGTHRUSTER.CPP
^C:\AGODEMAR\MATLAB\JSBSIMMATLAB\JSBSIM\SRC\INITIALIZATION\FGTRIM.CPP
/c /IC:\agodemar\matlab\jsbsimmatlab\JSBSim\src /IC:\agodemar\matlab\jsbsimmatlab\JSBSim\src\simgear\xml /I"C:\Program Files\Microsoft Platform SDK for Windows Server 2003 R2\Include" /Zi /nologo /W1 /WX- /Ox /Ot /GL /D WIN32 /D NDEBUG /D _CONSOLE /D HAVE_EXPAT_CONFIG_H /D _USE_MATH_DEFINES /Gm- /EHsc /MD /GS /arch:SSE2 /fp:fast /Zc:wchar_t /Zc:forScope /Fo"X64\JSBSIM64\\" /Fd"X64\JSBSIM64\VC110.PDB" /Gd /TP C:\AGODEMAR\MATLAB\JSBSIMMATLAB\JSBSIM\SRC\INITIALIZATION\FGTRIM.CPP
^C:\AGODEMAR\MATLAB\JSBSIMMATLAB\JSBSIM\SRC\INITIALIZATION\FGTRIMAXIS.CPP
/c /IC:\agodemar\matlab\jsbsimmatlab\JSBSim\src /IC:\agodemar\matlab\jsbsimmatlab\JSBSim\src\simgear\xml /I"C:\Program Files\Microsoft Platform SDK for Windows Server 2003 R2\Include" /Zi /nologo /W1 /WX- /Ox /Ot /GL /D WIN32 /D NDEBUG /D _CONSOLE /D HAVE_EXPAT_CONFIG_H /D _USE_MATH_DEFINES /Gm- /EHsc /MD /GS /arch:SSE2 /fp:fast /Zc:wchar_t /Zc:forScope /Fo"X64\JSBSIM64\\" /Fd"X64\JSBSIM64\VC110.PDB" /Gd /TP C:\AGODEMAR\MATLAB\JSBSIMMATLAB\JSBSIM\SRC\INITIALIZATION\FGTRIMAXIS.CPP
^C:\AGODEMAR\MATLAB\JSBSIMMATLAB\JSBSIM\SRC\MODELS\PROPULSION\FGTURBINE.CPP
/c /IC:\agodemar\matlab\jsbsimmatlab\JSBSim\src /IC:\agodemar\matlab\jsbsimmatlab\JSBSim\src\simgear\xml /I"C:\Program Files\Microsoft Platform SDK for Windows Server 2003 R2\Include" /Zi /nologo /W1 /WX- /Ox /Ot /GL /D WIN32 /D NDEBUG /D _CONSOLE /D HAVE_EXPAT_CONFIG_H /D _USE_MATH_DEFINES /Gm- /EHsc /MD /GS /arch:SSE2 /fp:fast /Zc:wchar_t /Zc:forScope /Fo"X64\JSBSIM64\\" /Fd"X64\JSBSIM64\VC110.PDB" /Gd /TP C:\AGODEMAR\MATLAB\JSBSIMMATLAB\JSBSIM\SRC\MODELS\PROPULSION\FGTURBINE.CPP
^C:\AGODEMAR\MATLAB\JSBSIMMATLAB\JSBSIM\SRC\MODELS\PROPULSION\FGTURBOPROP.CPP
/c /IC:\agodemar\matlab\jsbsimmatlab\JSBSim\src /IC:\agodemar\matlab\jsbsimmatlab\JSBSim\src\simgear\xml /I"C:\Program Files\Microsoft Platform SDK for Windows Server 2003 R2\Include" /Zi /nologo /W1 /WX- /Ox /Ot /GL /D WIN32 /D NDEBUG /D _CONSOLE /D HAVE_EXPAT_CONFIG_H /D _USE_MATH_DEFINES /Gm- /EHsc /MD /GS /arch:SSE2 /fp:fast /Zc:wchar_t /Zc:forScope /Fo"X64\JSBSIM64\\" /Fd"X64\JSBSIM64\VC110.PDB" /Gd /TP C:\AGODEMAR\MATLAB\JSBSIMMATLAB\JSBSIM\SRC\MODELS\PROPULSION\FGTURBOPROP.CPP
^C:\AGODEMAR\MATLAB\JSBSIMMATLAB\JSBSIM\SRC\INPUT_OUTPUT\FGXMLELEMENT.CPP
/c /IC:\agodemar\matlab\jsbsimmatlab\JSBSim\src /IC:\agodemar\matlab\jsbsimmatlab\JSBSim\src\simgear\xml /I"C:\Program Files\Microsoft Platform SDK for Windows Server 2003 R2\Include" /Zi /nologo /W1 /WX- /Ox /Ot /GL /D WIN32 /D NDEBUG /D _CONSOLE /D HAVE_EXPAT_CONFIG_H /D _USE_MATH_DEFINES /Gm- /EHsc /MD /GS /arch:SSE2 /fp:fast /Zc:wchar_t /Zc:forScope /Fo"X64\JSBSIM64\\" /Fd"X64\JSBSIM64\VC110.PDB" /Gd /TP C:\AGODEMAR\MATLAB\JSBSIMMATLAB\JSBSIM\SRC\INPUT_OUTPUT\FGXMLELEMENT.CPP
^C:\AGODEMAR\MATLAB\JSBSIMMATLAB\JSBSIM\SRC\INPUT_OUTPUT\FGXMLPARSE.CPP
/c /IC:\agodemar\matlab\jsbsimmatlab\JSBSim\src /IC:\agodemar\matlab\jsbsimmatlab\JSBSim\src\simgear\xml /I"C:\Program Files\Microsoft Platform SDK for Windows Server 2003 R2\Include" /Zi /nologo /W1 /WX- /Ox /Ot /GL /D WIN32 /D NDEBUG /D _CONSOLE /D HAVE_EXPAT_CONFIG_H /D _USE_MATH_DEFINES /Gm- /EHsc /MD /GS /arch:SSE2 /fp:fast /Zc:wchar_t /Zc:forScope /Fo"X64\JSBSIM64\\" /Fd"X64\JSBSIM64\VC110.PDB" /Gd /TP C:\AGODEMAR\MATLAB\JSBSIMMATLAB\JSBSIM\SRC\INPUT_OUTPUT\FGXMLPARSE.CPP
^C:\AGODEMAR\MATLAB\JSBSIMMATLAB\JSBSIM\SRC\SIMGEAR\PROPS\PROPS.CXX
/c /IC:\agodemar\matlab\jsbsimmatlab\JSBSim\src /IC:\agodemar\matlab\jsbsimmatlab\JSBSim\src\simgear\xml /I"C:\Program Files\Microsoft Platform SDK for Windows Server 2003 R2\Include" /Zi /nologo /W1 /WX- /Ox /Ot /GL /D WIN32 /D NDEBUG /D _CONSOLE /D HAVE_EXPAT_CONFIG_H /D _USE_MATH_DEFINES /Gm- /EHsc /MD /GS /arch:SSE2 /fp:fast /Zc:wchar_t /Zc:forScope /Fo"X64\JSBSIM64\\" /Fd"X64\JSBSIM64\VC110.PDB" /Gd /TP C:\AGODEMAR\MATLAB\JSBSIMMATLAB\JSBSIM\SRC\SIMGEAR\PROPS\PROPS.CXX
^C:\AGODEMAR\MATLAB\JSBSIMMATLAB\JSBSIM\SRC\SIMGEAR\XML\XMLPARSE.C
/c /IC:\agodemar\matlab\jsbsimmatlab\JSBSim\src /IC:\agodemar\matlab\jsbsimmatlab\JSBSim\src\simgear\xml /I"C:\Program Files\Microsoft Platform SDK for Windows Server 2003 R2\Include" /Zi /nologo /W1 /WX- /Ox /Ot /GL /D WIN32 /D NDEBUG /D _CONSOLE /D HAVE_EXPAT_CONFIG_H /D _USE_MATH_DEFINES /Gm- /EHsc /MD /GS /arch:SSE2 /fp:fast /Zc:wchar_t /Zc:forScope /Fo"X64\JSBSIM64\\" /Fd"X64\JSBSIM64\VC110.PDB" /Gd /TC C:\AGODEMAR\MATLAB\JSBSIMMATLAB\JSBSIM\SRC\SIMGEAR\XML\XMLPARSE.C
^C:\AGODEMAR\MATLAB\JSBSIMMATLAB\JSBSIM\SRC\SIMGEAR\XML\XMLROLE.C
/c /IC:\agodemar\matlab\jsbsimmatlab\JSBSim\src /IC:\agodemar\matlab\jsbsimmatlab\JSBSim\src\simgear\xml /I"C:\Program Files\Microsoft Platform SDK for Windows Server 2003 R2\Include" /Zi /nologo /W1 /WX- /Ox /Ot /GL /D WIN32 /D NDEBUG /D _CONSOLE /D HAVE_EXPAT_CONFIG_H /D _USE_MATH_DEFINES /Gm- /EHsc /MD /GS /arch:SSE2 /fp:fast /Zc:wchar_t /Zc:forScope /Fo"X64\JSBSIM64\\" /Fd"X64\JSBSIM64\VC110.PDB" /Gd /TC C:\AGODEMAR\MATLAB\JSBSIMMATLAB\JSBSIM\SRC\SIMGEAR\XML\XMLROLE.C
^C:\AGODEMAR\MATLAB\JSBSIMMATLAB\JSBSIM\SRC\SIMGEAR\XML\XMLTOK.C
/c /IC:\agodemar\matlab\jsbsimmatlab\JSBSim\src /IC:\agodemar\matlab\jsbsimmatlab\JSBSim\src\simgear\xml /I"C:\Program Files\Microsoft Platform SDK for Windows Server 2003 R2\Include" /Zi /nologo /W1 /WX- /Ox /Ot /GL /D WIN32 /D NDEBUG /D _CONSOLE /D HAVE_EXPAT_CONFIG_H /D _USE_MATH_DEFINES /Gm- /EHsc /MD /GS /arch:SSE2 /fp:fast /Zc:wchar_t /Zc:forScope /Fo"X64\JSBSIM64\\" /Fd"X64\JSBSIM64\VC110.PDB" /Gd /TC C:\AGODEMAR\MATLAB\JSBSIMMATLAB\JSBSIM\SRC\SIMGEAR\XML\XMLTOK.C
