^C:\AGODEMAR\MATLAB\JSBSIMMATLAB\MEXJSBSIM\MEXJSBSIM.CPP
/c /Zi /nologo /W1 /WX- /O2 /D MATLAB_MEX_FILE /D HAVE_EXPAT_CONFIG_H /D _WINDLL /D _WINDLL /Gm- /EHsc /MD /GS /fp:precise /Zc:wchar_t /Zc:forScope /Fo"X64\MEXJSBSIM64\\" /Fd"X64\MEXJSBSIM64\VC110.PDB" /Gd /TP C:\AGODEMAR\MATLAB\JSBSIMMATLAB\MEXJSBSIM\MEXJSBSIM.CPP
^C:\AGODEMAR\MATLAB\JSBSIMMATLAB\MEXJSBSIM\JSBSIMINTERFACE.CPP
/c /Zi /nologo /W1 /WX- /O2 /D MATLAB_MEX_FILE /D HAVE_EXPAT_CONFIG_H /D _WINDLL /D _WINDLL /Gm- /EHsc /MD /GS /fp:precise /Zc:wchar_t /Zc:forScope /Fo"X64\MEXJSBSIM64\\" /Fd"X64\MEXJSBSIM64\VC110.PDB" /Gd /TP C:\AGODEMAR\MATLAB\JSBSIMMATLAB\MEXJSBSIM\JSBSIMINTERFACE.CPP
